^C:\USERS\MICHAŁ\DESKTOP\SPD\SPD1\SPD1\SPD1.CPP|C:\USERS\MICHAŁ\DESKTOP\SPD\SPD1\SPD1\STDAFX.CPP
C:\USERS\MICHAł\DESKTOP\SPD\SPD1\SPD1\DEBUG\VC141.PDB
C:\USERS\MICHAł\DESKTOP\SPD\SPD1\SPD1\DEBUG\VC141.IDB
C:\USERS\MICHAł\DESKTOP\SPD\SPD1\SPD1\DEBUG\SPD1.OBJ
C:\USERS\MICHAł\DESKTOP\SPD\SPD1\SPD1\DEBUG\STDAFX.OBJ
^C:\USERS\MICHAŁ\DESKTOP\SPD\SPD1\SPD1\SPD1.CPP
C:\USERS\MICHAŁ\DESKTOP\SPD\SPD1\SPD1\DEBUG\VC141.PDB
C:\USERS\MICHAł\DESKTOP\SPD\SPD1\SPD1\DEBUG\VC141.IDB
C:\USERS\MICHAł\DESKTOP\SPD\SPD1\SPD1\DEBUG\SPD1.OBJ
^C:\USERS\MICHAŁ\DESKTOP\SPD\SPD1\SPD1\STDAFX.CPP
C:\USERS\MICHAŁ\DESKTOP\SPD\SPD1\SPD1\DEBUG\VC141.PDB
